{
    "OTAServer":{
        "ip":"192.168.0.102",
        "port":80,
        "download_config_url":"/OTA/API_MQTT_Monitor_Service_Interface/download/"
    },
    "MQTTServer":{
        "ip":"140.135.106.7",
        "port":1883,
        "user":"admin",
        "paswd":"a3345678"
    }
}